<?xml version="1.0" encoding="utf-8"?>
<!-- Generator: Adobe Illustrator 24.3.0, SVG Export Plug-In . SVG Version: 6.00 Build 0)  -->
<svg version="1.1" id="Capa_1" xmlns="http://www.w3.org/2000/svg" xmlns:xlink="http://www.w3.org/1999/xlink" x="0px" y="0px"
	 viewBox="0 0 496 357.6" style="enable-background:new 0 0 496 357.6;" xml:space="preserve">
<style type="text/css">
	.st0{fill:#1174CE;}
	.st1{fill:#0F549D;}
	.st2{fill:#02375E;}
	.st3{fill:#146643;}
	.st4{fill:#1BCC38;}
	.st5{fill:#329947;}
	.st6{fill:#E20E37;}
	.st7{fill:#B41F36;}
	.st8{fill:#720A1E;}
</style>
<path class="st0" d="M68,0C29.6,0,0,24.8,0,68v123.2c3.2,15.2,19.2,26.4,36.8,26.4c20,0,34.4-14.4,34.4-32v-62.4h54.4v61.6
	c0,34.4-44,52-76,52c-18.4,0-36-5.6-48.8-15.2v136h86.4c30.4,0,65.6-28.8,65.6-65.6V0L68,0L68,0z"/>
<path class="st1" d="M0,68v123.2c3.2,15.2,19.2,26.4,36.8,26.4c20,0,34.4-14.4,34.4-32v-62.4h54.4v61.6c0,34.4-44,52-76,52
	c-18.4,0-36-5.6-48.8-15.2v136h86.4c30.4,0,65.6-28.8,65.6-65.6V0"/>
<path class="st2" d="M124.8,123.2v61.6c0,34.4-44,52-76,52c-18.4,0-36-5.6-48.8-15.2v136h86.4c30.4,0,65.6-28.8,65.6-65.6"/>
<path class="st3" d="M370.4,216H408c9.6,0,18.4-8.8,18.4-18.4s-8.8-18.4-18.4-18.4h-37.6V216z"/>
<path class="st4" d="M412.8,0c-39.2,0-68,24.8-68,67.2v56h100.8c14.4,0,26.4,12,26.4,26.4S460,176,445.6,176
	c16,0,28.8,11.2,28.8,25.6s-12,25.6-28.8,25.6H344v130.4h86.4c30.4,0,65.6-28.8,65.6-65.6V0L412.8,0L412.8,0z"/>
<path class="st5" d="M344,68v55.2h100.8c14.4,0,26.4,12,26.4,26.4s-12,26.4-26.4,26.4c16,0,28.8,11.2,28.8,25.6s-12,25.6-28.8,25.6
	H344v130.4h86.4c30.4,0,65.6-28.8,65.6-65.6V0"/>
<g>
	<path class="st3" d="M471.2,149.6c0,14.4-12,26.4-26.4,26.4c16,0,28.8,11.2,28.8,25.6s-12,25.6-28.8,25.6H344v130.4h86.4
		c30.4,0,65.6-28.8,65.6-65.6"/>
	<path class="st3" d="M425.6,152.8c0-9.6-8.8-18.4-18.4-18.4h-36.8v36H408C417.6,170.4,425.6,162.4,425.6,152.8z"/>
</g>
<path class="st6" d="M239.2,0c-39.2,0-68,24.8-68,67.2V136c9.6-8,21.6-13.6,34.4-13.6h91.2v19.2c-21.6-4.8-42.4-7.2-52.8-7.2
	c-22.4,0-40.8,18.4-40.8,40.8S221.6,216,244,216c10.4,0,31.2-1.6,52.8-6.4v17.6h-91.2c-12.8,0-25.6-4.8-34.4-13.6v144h86.4
	c30.4,0,65.6-28.8,65.6-65.6V0L239.2,0L239.2,0z"/>
<path class="st7" d="M171.2,68v68.8c9.6-8,21.6-13.6,34.4-13.6h91.2v19.2c-21.6-4.8-42.4-7.2-52.8-7.2c-22.4,0-40.8,18.4-40.8,40.8
	s18.4,40.8,40.8,40.8c10.4,0,31.2-1.6,52.8-6.4v16.8h-91.2c-12.8,0-25.6-4.8-34.4-13.6v144h86.4c30.4,0,65.6-28.8,65.6-65.6V0"/>
<path class="st8" d="M296.8,123.2v19.2c-21.6-4.8-42.4-7.2-52.8-7.2c-22.4,0-40.8,18.4-40.8,40.8s18.4,40.8,40.8,40.8
	c10.4,0,31.2-1.6,52.8-6.4v16.8h-91.2c-12.8,0-25.6-4.8-34.4-13.6v144h86.4c30.4,0,65.6-28.8,65.6-65.6"/>
</svg>
