<?xml version="1.0" encoding="utf-8"?>
<!-- Generator: Adobe Illustrator 23.0.1, SVG Export Plug-In . SVG Version: 6.00 Build 0)  -->
<svg version="1.1" id="Слой_1" xmlns="http://www.w3.org/2000/svg" xmlns:xlink="http://www.w3.org/1999/xlink" x="0px" y="0px"
	 viewBox="0 0 19 19" style="enable-background:new 0 0 19 19;" xml:space="preserve">
<style type="text/css">
	.st0{fill:#00C0FF;}
</style>
<g>
	<path class="st0" d="M10.7,8c0-0.4-0.3-0.7-0.7-0.7H8.7v1.4H10C10.4,8.7,10.7,8.4,10.7,8z"/>
	<path class="st0" d="M10.2,10.3H8.7v1.5h1.5c0.5-0.1,0.7-0.4,0.7-0.8S10.6,10.3,10.2,10.3z"/>
	<path class="st0" d="M9.5,0C4.3,0,0,4.3,0,9.5S4.3,19,9.5,19S19,14.7,19,9.5S14.7,0,9.5,0z M10.2,13.4H7V5.6h3
		c1.4,0,2.4,0.9,2.4,2.2c0,0.6-0.3,1.2-0.7,1.5c0.6,0.4,1,1,1,1.8C12.7,12.5,11.6,13.4,10.2,13.4z"/>
</g>
</svg>
