<?xml version="1.0" encoding="utf-8"?>
<!-- Generator: Adobe Illustrator 23.0.1, SVG Export Plug-In . SVG Version: 6.00 Build 0)  -->
<svg version="1.1" id="Слой_1" xmlns="http://www.w3.org/2000/svg" xmlns:xlink="http://www.w3.org/1999/xlink" x="0px" y="0px"
	 viewBox="0 0 19 19" style="enable-background:new 0 0 19 19;" xml:space="preserve">
<style type="text/css">
	.st0{fill:#00C0FF;}
</style>
<path class="st0" d="M9.5,0C4.3,0,0,4.3,0,9.5S4.3,19,9.5,19S19,14.7,19,9.5S14.7,0,9.5,0z M9.8,11.8c0.8,0,1.5-0.4,1.8-1l1.5,0.9
	c-0.7,1.1-1.9,1.8-3.3,1.8c-2.3,0-4-1.7-4-4s1.7-4,4-4c1.4,0,2.6,0.7,3.3,1.8l-1.5,0.9c-0.3-0.6-1-1-1.8-1c-1.4,0-2.3,0.9-2.3,2.3
	S8.4,11.8,9.8,11.8z"/>
</svg>
