<?xml version="1.0" encoding="utf-8"?>
<!-- Generator: Adobe Illustrator 23.0.1, SVG Export Plug-In . SVG Version: 6.00 Build 0)  -->
<svg version="1.1" id="Layer_1" xmlns="http://www.w3.org/2000/svg" xmlns:xlink="http://www.w3.org/1999/xlink" x="0px" y="0px"
	 viewBox="0 0 15.5 15.5" style="enable-background:new 0 0 15.5 15.5;" xml:space="preserve">
<style type="text/css">
	.st0{fill:#00C0FF;}
</style>
<g>
	<path class="st0" d="M14.9,4.9L13.8,6C13.9,6.6,14,7.2,14,7.8c0,3.4-2.8,6.2-6.2,6.2s-6.2-2.8-6.2-6.2s2.8-6.2,6.2-6.2
		c1.2,0,2.3,0.3,3.3,0.9l1.1-1.1C10.9,0.5,9.4,0,7.8,0C3.5,0,0,3.5,0,7.8s3.5,7.8,7.8,7.8s7.8-3.5,7.8-7.8
		C15.5,6.7,15.3,5.8,14.9,4.9z"/>
	<path class="st0" d="M6.6,6.7c-0.3-0.3-0.8-0.3-1.1,0s-0.3,0.8,0,1.1l1.7,1.7c0.2,0.1,0.3,0.2,0.5,0.2c0.2,0,0.4-0.1,0.5-0.2
		l6.7-6.7c0.3-0.3,0.3-0.8,0-1.1s-0.8-0.3-1.1,0L7.8,7.8L6.6,6.7z"/>
</g>
</svg>
