<?xml version="1.0" encoding="utf-8"?>
<!-- Generator: Adobe Illustrator 23.0.1, SVG Export Plug-In . SVG Version: 6.00 Build 0)  -->
<svg version="1.1" id="Layer_1" xmlns="http://www.w3.org/2000/svg" xmlns:xlink="http://www.w3.org/1999/xlink" x="0px" y="0px"
	 viewBox="0 0 59.9 60" style="enable-background:new 0 0 59.9 60;" xml:space="preserve">
<style type="text/css">
	.st0{fill:#00C0FF;}
	.st1{fill:#3C3F72;}
</style>
<g>
	<g>
		<g>
			<path class="st0" d="M42.5,36.8c0-2.8-0.2-5.4-0.4-7.7h-8.8c-0.2,2.3-0.4,4.9-0.4,7.7H42.5z"/>
			<path class="st0" d="M31.3,29.1H17.3c-1,2.4-1.6,5.1-1.7,7.7h15.4C31,34.2,31.1,31.6,31.3,29.1z"/>
			<path class="st0" d="M44.1,46.5h14.1c1-2.4,1.6-5.1,1.7-7.7H44.4C44.4,41.4,44.3,44,44.1,46.5L44.1,46.5z"/>
			<path class="st0" d="M33.5,48.4c0.8,6.1,2.1,10.2,3.3,11.6c0.6,0,1.1,0,1.7,0c1.2-1.4,2.6-5.5,3.3-11.6H33.5z"/>
			<path class="st0" d="M32.8,38.7c0,2.8,0.2,5.4,0.4,7.7h8.9c0.2-2.3,0.4-4.9,0.4-7.7H32.8z"/>
			<path class="st0" d="M41.9,27.1c-0.8-6.1-2.1-10.2-3.3-11.6c-0.6,0-1.1,0-1.7,0c-1.2,1.4-2.6,5.5-3.3,11.6H41.9z"/>
			<path class="st0" d="M31.5,48.4H18.2c3.3,6.1,9.4,10.3,16.3,11.3C33.1,57.2,32.1,53.1,31.5,48.4z"/>
			<path class="st0" d="M43.8,48.4c-0.6,4.7-1.5,8.8-2.9,11.3c6.9-1,12.9-5.2,16.3-11.3H43.8z"/>
			<path class="st0" d="M31.5,27.1c0.6-4.7,1.5-8.8,2.9-11.3c-6.9,1-12.9,5.2-16.3,11.3H31.5z"/>
			<path class="st0" d="M44.3,32.1c0.1,1.5,0.1,3.1,0.2,4.7h15.4c-0.1-2.7-0.7-5.3-1.7-7.7h-11c-1.6,0-2.9,1.3-2.9,2.9
				C44.3,32,44.3,32.1,44.3,32.1L44.3,32.1z"/>
			<path class="st0" d="M30,38.7H15.5c0.1,2.7,0.7,5.3,1.7,7.7h14.1C31.1,44.3,31,42,31,39.7C31,39.2,30.5,38.7,30,38.7z"/>
			<path class="st0" d="M43.8,27.1h13.4c-3.3-6.1-9.4-10.3-16.3-11.3C42.3,18.3,43.3,22.4,43.8,27.1L43.8,27.1z"/>
		</g>
	</g>
	<path class="st1" d="M41.3,10.4c2.5-1.9,3-5.6,1.1-8.1c-1.9-2.5-5.6-3-8.1-1.1c-0.6,0.4-1,1-1.4,1.6c-5.6-2.3-11.8-2.3-17.4,0
		c-1.7-2.7-5.3-3.5-8-1.8s-3.5,5.3-1.8,8C6,9.5,6.5,10,7,10.4c-4.2,1.5-7,5.5-7,10c0,0.5,0.4,1,1,1h0.2C1,22.3,1,23.3,1,24.2
		C1,33,6,41.1,13.8,45c-0.2,0.8-0.3,1.6-0.3,2.4c0,0.5,0.4,1,1,1h19.3c0.5,0,1-0.4,1-1c0-0.8-0.1-1.6-0.3-2.4
		c7.9-3.9,12.8-12,12.9-20.7c0-1-0.1-1.9-0.2-2.9h0.2c0.5,0,1-0.4,1-1C48.3,15.9,45.5,11.9,41.3,10.4L41.3,10.4z M37.7,2
		c2.1,0,3.9,1.7,3.9,3.9s-1.7,3.9-3.9,3.9c-2.1,0-3.9-1.7-3.9-3.9S35.5,2,37.7,2z M6.8,5.9C6.8,3.8,8.5,2,10.6,2s3.9,1.7,3.9,3.9
		s-1.7,3.9-3.9,3.9S6.8,8,6.8,5.9z M10.6,11.7c4.4,0,8.1,3.3,8.6,7.7H2C2.5,15,6.2,11.7,10.6,11.7z M15.5,46.5
		c0.6-4.8,4.9-8.2,9.6-7.6c4,0.5,7.2,3.6,7.6,7.6H15.5z M20.3,32.9c0-2.1,1.7-3.9,3.9-3.9s3.9,1.7,3.9,3.9c0,2.1-1.7,3.9-3.9,3.9
		S20.3,35.1,20.3,32.9z M33.8,43.1c-1.2-2.6-3.4-4.7-6.1-5.7c2.5-2,2.9-5.6,0.9-8.1s-5.6-2.9-8.1-0.9s-2.9,5.6-0.9,8.1
		c0.3,0.3,0.6,0.6,0.9,0.9c-2.7,1-4.8,3.1-6,5.7c-8.1-4-12.7-12.8-11.4-21.8h17.2c0.5,0,1-0.4,1-1c0-4.5-2.8-8.5-7-10
		c1.4-1.1,2.2-2.8,2.2-4.5c0-0.5-0.1-0.9-0.2-1.4c5.1-2,10.7-2,15.8,0c-0.1,0.4-0.2,0.9-0.2,1.4c0,1.8,0.8,3.4,2.2,4.5
		c-4.2,1.5-7,5.5-7,10c0,0.5,0.4,1,1,1h17.2C46.5,30.3,41.9,39.1,33.8,43.1L33.8,43.1z M29,19.4c0.6-4.8,4.9-8.2,9.6-7.6
		c4,0.5,7.2,3.6,7.6,7.6H29z"/>
</g>
</svg>
