<?xml version="1.0" encoding="utf-8"?>
<!-- Generator: Adobe Illustrator 23.0.1, SVG Export Plug-In . SVG Version: 6.00 Build 0)  -->
<svg version="1.1" id="Layer_1" xmlns="http://www.w3.org/2000/svg" xmlns:xlink="http://www.w3.org/1999/xlink" x="0px" y="0px"
	 viewBox="0 0 14 12" style="enable-background:new 0 0 14 12;" xml:space="preserve">
<style type="text/css">
	.st0{fill:#00C0FF;}
</style>
<g>
	<g>
		<path class="st0" d="M2.3,6.7v0.1L6.4,11l-1,1L0,6.6V5.4L5.4,0l1,1L2.3,5.2v0.1H14v1.5C14,6.7,2.3,6.7,2.3,6.7z"/>
	</g>
</g>
</svg>
